臨床研究のフローチャートが描ける ggconsort パッケージの紹介
…
---

### 使用するデータ

`ggconsort` のサンプルデータを表示する

- idに重複のない、患者1人につき1行のデータ

```r
trial_data
```

```
## # A tibble: 1,200 × 5
##       id declined prior_chemo bone_mets treatment
##    <int>    <int>       <int>     <int> <chr>    
##  1 65464        0           0         0 Drug A   
##  2 48228        0           0         0 Drug B   
##  3 92586        0           0         0 Drug A   
##  4 70176        0           0         0 Drug B   
##  5 89052        0           0         0 Drug A   
##  6 97333        0           0         0 Drug B   
##  7 80724        0           0         0 Drug A   
##  8 65186        0           0         0 Drug B   
##  9 48837        0           0         0 Drug A   
## 10 99005        0           0         0 Drug B   
## # … with 1,190 more rows
```
…
*export::graph2ppt()
```

---
### `ggconsort_cohort` からデータフレームを引き出す

- `cohort_pull()` を使うと `cohort_define()` で定義したサブコホートを抽出できる
- サブコホートを簡単に取り出せるため、感度分析やコードレビューなどに使えそう

```r
study_cohorts %>% cohort_pull(randomized)
```

```
## # A tibble: 938 × 5
##       id declined prior_chemo bone_mets treatment
##    <int>    <int>       <int>     <int> <chr>    
##  1 65464        0           0         0 Drug A   
##  2 48228        0           0         0 Drug B   
##  3 92586        0           0         0 Drug A   
##  4 70176        0           0         0 Drug B   
##  5 89052        0           0         0 Drug A   
##  6 97333        0           0         0 Drug B   
##  7 80724        0           0         0 Drug A   
##  8 65186        0           0         0 Drug B   
##  9 48837        0           0         0 Drug A   
## 10 99005        0           0         0 Drug B   
## # … with 928 more rows
```
…
